<?xml version="1.0" encoding="utf-8"?>
<!-- Generator: Adobe Illustrator 21.0.0, SVG Export Plug-In . SVG Version: 6.00 Build 0)  -->
<svg version="1.1" id="Layer_1" xmlns="http://www.w3.org/2000/svg" xmlns:xlink="http://www.w3.org/1999/xlink" x="0px" y="0px"
	 viewBox="0 0 404 116" style="enable-background:new 0 0 404 116;" xml:space="preserve">
<style type="text/css">
	.st0{fill:#2ABED2;}
</style>
<path id="Фигура_1" d="M37.6,72.5l-4-1.1l-3.2,11.9h4.3L37.6,72.5L37.6,72.5L37.6,72.5z M29.1,103.7L25.8,116h-4.3l3.3-12.3
	L29.1,103.7L29.1,103.7z M33.4,103.7h17.1L47.2,116H30.1L33.4,103.7L33.4,103.7L33.4,103.7z M33.6,87.4l-3.3,12.3H26l3.3-12.3H33.6
	L33.6,87.4z M37.8,87.4h17.1l-3.3,12.3H34.5L37.8,87.4L37.8,87.4L37.8,87.4z M41.5,73.5l15.9,4.2L56,83.3H38.9L41.5,73.5L41.5,73.5
	L41.5,73.5z M300.6,61.6h-11.8v-4.2h-5.2v46.5h-11.9V57.4h-5.1v4.2h-11.9V45.5h46V61.6L300.6,61.6z M404,99.6h-12.5l-9.9-16.9h-5.4
	v16.9h-11.9V41.3h11.9v4.2h6.3c3.8,0,7.5,1.5,10.2,4.2c2.7,2.7,4.3,6.3,4.3,10.1v8.5c0,2.1-0.5,4.1-1.4,6c-0.7,1.5-1.7,2.8-2.8,4
	l5.5,9.4h5.7V99.6C404,99.6,404,99.6,404,99.6z M384.4,70.1c0.5-0.5,0.7-1.1,0.7-1.8v-8.5c0-0.7-0.3-1.3-0.7-1.8
	c-0.5-0.5-1.1-0.7-1.8-0.7h-6.3v13.5h6.3C383.2,70.9,383.9,70.6,384.4,70.1C384.4,70.1,384.4,70.1,384.4,70.1z M350.5,53.5
	c10.6,10.4,10.7,27.4,0.3,38c-0.1,0.1-0.2,0.2-0.3,0.3c-10.7,10.6-27.9,10.6-38.5,0c-10.6-10.4-10.7-27.4-0.3-38
	c0.1-0.1,0.2-0.2,0.3-0.3C322.7,42.9,339.8,42.9,350.5,53.5L350.5,53.5L350.5,53.5z M342.1,83.3c5.9-5.9,6-15.5,0-21.5c0,0,0,0,0,0
	c-6-5.9-15.7-5.9-21.7,0c-5.9,5.9-6,15.5,0,21.5c0,0,0,0,0,0C326.4,89.3,336.1,89.3,342.1,83.3L342.1,83.3L342.1,83.3z"/>
<path id="Фигура_1_копия" class="st0" d="M104.5,22.5c3.4,0.9,5.4,4.4,4.5,7.7l-1.6,5.8l-96-25.6l1.6-5.8
	c0.9-3.4,4.4-5.4,7.8-4.5L104.5,22.5L104.5,22.5L104.5,22.5z M8.2,22.3L0.2,51.8c-0.9,3.4,1.1,6.8,4.5,7.7l83.8,22.3
	c3.4,0.9,6.8-1.1,7.8-4.5l8-29.5L8.2,22.3L8.2,22.3z M159.4,59.9v4.2c0,8-6.5,14.4-14.5,14.4h-11.1v21.1h-12l0.1-42.2h-4.2V45.5
	h27.3C152.9,45.5,159.3,52,159.4,59.9L159.4,59.9z M247.6,57.2H244L231.7,84v3.7h4.5v11.8h-20.4V87.8h4.2V84l-12.4-26.8h-3.6V45.4
	h11.2l10.7,22.6l10.6-22.6h11.2L247.6,57.2L247.6,57.2L247.6,57.2z M196.9,99.6H185V87h-11.2l-2.7,12.6h-15.9V87.8h6.3l6.8-30.6
	c0.7-3.3,2.5-6.2,5.1-8.4c2.6-2.1,5.8-3.2,9.1-3.2c0.9,0,1.7,0.1,2.6,0.2v-4.5h11.9L196.9,99.6L196.9,99.6L196.9,99.6z M185,75.2
	V59.9c0-0.7-0.3-1.3-0.7-1.8c-0.5-0.5-1.1-0.7-1.8-0.7c-0.6,0-1.2,0.2-1.6,0.6c-0.5,0.4-0.8,0.9-0.9,1.4l-3.4,15.8H185L185,75.2z
	 M147.4,64.1v-4.2c0-1.4-1.1-2.5-2.4-2.5c0,0-0.1,0-0.1,0h-11.1v9.4h11.1C146.3,66.7,147.4,65.6,147.4,64.1
	C147.4,64.2,147.4,64.1,147.4,64.1L147.4,64.1L147.4,64.1z"/>
</svg>
